{
  "ast": null,
  "code": "import { isElement, isHTMLElement } from \"./instanceOf.js\";\nimport { round } from \"../utils/math.js\";\nimport getWindow from \"./getWindow.js\";\nimport isLayoutViewport from \"./isLayoutViewport.js\";\nexport default function getBoundingClientRect(element, includeScale, isFixedStrategy) {\n  if (includeScale === void 0) {\n    includeScale = false;\n  }\n\n  if (isFixedStrategy === void 0) {\n    isFixedStrategy = false;\n  }\n\n  var clientRect = element.getBoundingClientRect();\n  var scaleX = 1;\n  var scaleY = 1;\n\n  if (includeScale && isHTMLElement(element)) {\n    scaleX = element.offsetWidth > 0 ? round(clientRect.width) / element.offsetWidth || 1 : 1;\n    scaleY = element.offsetHeight > 0 ? round(clientRect.height) / element.offsetHeight || 1 : 1;\n  }\n\n  var _ref = isElement(element) ? getWindow(element) : window,\n      visualViewport = _ref.visualViewport;\n\n  var addVisualOffsets = !isLayoutViewport() && isFixedStrategy;\n  var x = (clientRect.left + (addVisualOffsets && visualViewport ? visualViewport.offsetLeft : 0)) / scaleX;\n  var y = (clientRect.top + (addVisualOffsets && visualViewport ? visualViewport.offsetTop : 0)) / scaleY;\n  var width = clientRect.width / scaleX;\n  var height = clientRect.height / scaleY;\n  return {\n    width: width,\n    height: height,\n    top: y,\n    right: x + width,\n    bottom: y + height,\n    left: x,\n    x: x,\n    y: y\n  };\n}",
  "map": null,
  "metadata": {},
  "sourceType": "module"
}
