{
  "ast": null,
  "code": "import * as i0 from \"@angular/core\";\nexport let GrafikComponent = /*#__PURE__*/(() => {\n  class GrafikComponent {\n    constructor() {}\n\n    ngOnInit() {}\n\n  }\n\n  GrafikComponent.ɵfac = function GrafikComponent_Factory(t) {\n    return new (t || GrafikComponent)();\n  };\n\n  GrafikComponent.ɵcmp = /*@__PURE__*/i0.ɵɵdefineComponent({\n    type: GrafikComponent,\n    selectors: [[\"app-grafik\"]],\n    decls: 2,\n    vars: 0,\n    template: function GrafikComponent_Template(rf, ctx) {\n      if (rf & 1) {\n        i0.ɵɵelementStart(0, \"p\");\n        i0.ɵɵtext(1, \"Grafik pracy\");\n        i0.ɵɵelementEnd();\n      }\n    }\n  });\n  return GrafikComponent;\n})();",
  "map": null,
  "metadata": {},
  "sourceType": "module"
}
