{
  "ast": null,
  "code": "export * from \"./enums.js\";\nexport * from \"./modifiers/index.js\"; // eslint-disable-next-line import/no-unused-modules\n\nexport { popperGenerator, detectOverflow, createPopper as createPopperBase } from \"./createPopper.js\"; // eslint-disable-next-line import/no-unused-modules\n\nexport { createPopper } from \"./popper.js\"; // eslint-disable-next-line import/no-unused-modules\n\nexport { createPopper as createPopperLite } from \"./popper-lite.js\";",
  "map": null,
  "metadata": {},
  "sourceType": "module"
}
