{
  "ast": null,
  "code": "import getWindow from \"./getWindow.js\";\nimport getDocumentElement from \"./getDocumentElement.js\";\nimport getWindowScrollBarX from \"./getWindowScrollBarX.js\";\nimport isLayoutViewport from \"./isLayoutViewport.js\";\nexport default function getViewportRect(element, strategy) {\n  var win = getWindow(element);\n  var html = getDocumentElement(element);\n  var visualViewport = win.visualViewport;\n  var width = html.clientWidth;\n  var height = html.clientHeight;\n  var x = 0;\n  var y = 0;\n\n  if (visualViewport) {\n    width = visualViewport.width;\n    height = visualViewport.height;\n    var layoutViewport = isLayoutViewport();\n\n    if (layoutViewport || !layoutViewport && strategy === 'fixed') {\n      x = visualViewport.offsetLeft;\n      y = visualViewport.offsetTop;\n    }\n  }\n\n  return {\n    width: width,\n    height: height,\n    x: x + getWindowScrollBarX(element),\n    y: y\n  };\n}",
  "map": null,
  "metadata": {},
  "sourceType": "module"
}
