{
  "ast": null,
  "code": "import getBoundingClientRect from \"./getBoundingClientRect.js\"; // Returns the layout rect of an element relative to its offsetParent. Layout\n// means it doesn't take into account transforms.\n\nexport default function getLayoutRect(element) {\n  var clientRect = getBoundingClientRect(element); // Use the clientRect sizes if it's not been transformed.\n  // Fixes https://github.com/popperjs/popper-core/issues/1223\n\n  var width = element.offsetWidth;\n  var height = element.offsetHeight;\n\n  if (Math.abs(clientRect.width - width) <= 1) {\n    width = clientRect.width;\n  }\n\n  if (Math.abs(clientRect.height - height) <= 1) {\n    height = clientRect.height;\n  }\n\n  return {\n    x: element.offsetLeft,\n    y: element.offsetTop,\n    width: width,\n    height: height\n  };\n}",
  "map": null,
  "metadata": {},
  "sourceType": "module"
}
